…
└──────────┴─────────┴─────────────────────┘
```
### Products by food group
```sql
-- Products by food group
SELECT 
    food_group,
    COUNT(*) AS count
FROM products,
    UNNEST(food_groups_tags) AS unnest(food_group)
GROUP BY food_group
ORDER BY count DESC;
```
```text
┌─────────────────────────────────────┬────────┐
│             food_group              │ count  │
│               varchar               │ int64  │
├─────────────────────────────────────┼────────┤
│ en:sugary-snacks                    │ 257611 │
│ en:fish-meat-eggs                   │ 165182 │
│ en:cereals-and-potatoes             │ 160465 │
│ en:milk-and-dairy-products          │ 153141 │
│ en:sweets                           │ 117731 │
│ en:fats-and-sauces                  │ 114765 │
│ en:beverages                        │ 113193 │
│ en:biscuits-and-cakes               │ 100602 │
│ en:fruits-and-vegetables            │  93543 │
│ en:composite-foods                  │  85396 │
│       ·                             │     ·  │
│       ·                             │     ·  │
│       ·                             │     ·  │
│ en:sandwiches                       │   7627 │
│ en:fruit-juices                     │   6980 │
│ en:eggs                             │   6321 │
│ en:waters-and-flavored-waters       │   5597 │
│ en:potatoes                         │   5533 │
│ en:soups                            │   4687 │
│ en:teas-and-herbal-teas-and-coffees │   3571 │
│ en:lean-fish                        │   1819 │
│ en:offals                           │   1759 │
│ en:fruit-nectars                    │   1675 │
├─────────────────────────────────────┴────────┤
│ 52 rows (20 shown)                 2 columns │
└──────────────────────────────────────────────┘
```
…
### Average Nutri-Score by brand with more than 100 products
```sql
-- Average Nutri-Score by brand with more than 100 products
SELECT 
    brand,
    AVG(nutriscore_score) AS avg_score,
    COUNT(*) AS products
FROM products,
     UNNEST(brands_tags) AS unnest(brand)
GROUP BY brand
HAVING COUNT(*) > 100
ORDER BY avg_score;
```
```text
┌────────────────────────────┬─────────────────────┬──────────┐
│           brand            │      avg_score      │ products │
│          varchar           │       double        │  int64   │
├────────────────────────────┼─────────────────────┼──────────┤
│ muller-s-muhle             │  -8.248175182481752 │      179 │
│ alliance-bio               │              -7.425 │      116 │
│ sabarot                    │ -6.6369426751592355 │      288 │
│ vivien-paille              │  -6.504424778761062 │      163 │
│ driscoll-s                 │  -5.516129032258065 │      147 │
│ terra-e-sole               │                -5.5 │      117 │
│ grain-de-frais             │ -4.9186046511627906 │      119 │
│ les-fermiers-de-loue       │  -4.793103448275862 │      115 │
│ once-again                 │  -4.041666666666667 │      172 │
│ edora                      │                -4.0 │      105 │
│   ·                        │                  ·  │       ·  │
│   ·                        │                  ·  │       ·  │
│   ·                        │                  ·  │       ·  │
│ la-cave-d-augustin-florent │                NULL │      101 │
│ messegue                   │                NULL │      119 │
│ apta                       │                NULL │      155 │
│ franklin-baker             │                NULL │      493 │
│ nielsen-massey             │                NULL │      217 │
│ labell                     │                NULL │      227 │
│ tahitian-gold-co           │                NULL │      112 │
│ cliganic                   │                NULL │      163 │
│ 良品铺子                   │                NULL │      173 │
│ tradeway-as                │                NULL │      189 │
├────────────────────────────┴─────────────────────┴──────────┤
│ 3120 rows (20 shown)                              3 columns │
└─────────────────────────────────────────────────────────────┘
```
…
└─────────────────────────────────────────────────────────────────────────┘
```
### Most common vitamins
```sql
-- Most common vitamins
SELECT 
    vitamin,
    COUNT(*) AS count
FROM products,
    UNNEST(vitamins_tags) AS unnest(vitamin)
GROUP BY vitamin
ORDER BY count DESC;
```
```text
┌──────────────────────────────────────┬───────┐
│               vitamin                │ count │
│               varchar                │ int64 │
├──────────────────────────────────────┼───────┤
│ en:niacin                            │ 69821 │
│ en:folic-acid                        │ 64349 │
│ en:riboflavin                        │ 63139 │
│ en:thiamin-mononitrate               │ 52584 │
│ en:thiamin                           │ 32385 │
│ en:l-ascorbic-acid                   │ 28630 │
│ en:vitamin-c                         │ 21479 │
│ en:retinyl-palmitate                 │ 16669 │
│ en:vitamin-b6                        │ 16387 │
│ en:vitamin-b12                       │ 16227 │
│       ·                              │     · │
│       ·                              │     · │
│       ·                              │     · │
│ en:beta-carotene-dye                 │    29 │
│ en:d-alpha-tocopheryl-acid-succinate │    12 │
│ en:dexpanthenol                      │    11 │
│ en:potassium-l-ascorbate             │     8 │
│ en:hydroxocobalamin                  │     6 │
│ en:l-ascorbyl-6-palmitate            │     5 │
│ en:pyridoxine-5-phosphate            │     3 │
│ da:vitamin-a-og-d                    │     2 │
│ en:vitamin-k3                        │     2 │
│ en:pyridoxine-dipalmitate            │     1 │
├──────────────────────────────────────┴───────┤
│ 50 rows (20 shown)                 2 columns │
└──────────────────────────────────────────────┘
```
…
├─────────┴────────┤
│     16 rows      │
└──────────────────┘
```
### Products containing 'café', 'cafe', or 'coffee' in their generic name
```sql
-- Products containing 'café', 'cafe', or 'coffee' in their generic name
SELECT product_name, generic_name
FROM products
WHERE LOWER(generic_name::VARCHAR) LIKE '%café%'
   OR LOWER(generic_name::VARCHAR) LIKE '%cafe%'
   OR LOWER(generic_name::VARCHAR) LIKE '%coffee%';
```
```text
┌──────────────────────┬────────────────────────────────────────────────────────────────────────────────────────────────────────────────────────────────────────────────────────────────────────────┐
│     product_name     │                                                                                generic_name                                                                                │
│ struct(lang varcha…  │                                                                   struct(lang varchar, "text" varchar)[]                                                                   │
├──────────────────────┼────────────────────────────────────────────────────────────────────────────────────────────────────────────────────────────────────────────────────────────────────────────┤
│ [{'lang': main, 't…  │ [{'lang': main, 'text': chilled coffee drink caramel flavored.}, {'lang': en, 'text': chilled coffee drink caramel flavored.}]                                             │
│ [{'lang': main, 't…  │ [{'lang': main, 'text': energy coffee beverage}, {'lang': en, 'text': energy coffee beverage}]                                                                             │
│ [{'lang': main, 't…  │ [{'lang': main, 'text': Premium Coffee Beverage}, {'lang': en, 'text': Premium Coffee Beverage}]                                                                           │
│ [{'lang': main, 't…  │ [{'lang': main, 'text': Sparkling green coffee energy beverage}, {'lang': en, 'text': Sparkling green coffee energy beverage}]                                             │
│ [{'lang': main, 't…  │ [{'lang': main, 'text': chilled coffee drink.}, {'lang': en, 'text': chilled coffee drink.}]                                                                               │
│ [{'lang': main, 't…  │ [{'lang': main, 'text': Bière britannique au café - Flat White Porter}, {'lang': fr, 'text': Bière britannique au café - Flat White Porter}]                               │
│ [{'lang': main, 't…  │ [{'lang': main, 'text': Ground coffee}, {'lang': en, 'text': Ground coffee}]                                                                                               │
│ [{'lang': main, 't…  │ [{'lang': main, 'text': ground coffee}, {'lang': en, 'text': ground coffee}]                                                                                               │
│ [{'lang': main, 't…  │ [{'lang': main, 'text': Instant Coffee}, {'lang': fr, 'text': Instant Coffee}]                                                                                             │
│ [{'lang': main, 't…  │ [{'lang': main, 'text': Coffee cookie crumble ice cream}, {'lang': en, 'text': Coffee cookie crumble ice cream}]                                                           │
│          ·           │                                                        ·                                                                                                                   │
│          ·           │                                                        ·                                                                                                                   │
│          ·           │                                                        ·                                                                                                                   │
│ [{'lang': main, 't…  │ [{'lang': main, 'text': 18 capsules de café torréfié et moulu pour système NESPRESSO.}, {'lang': fr, 'text': 18 capsules de café torréfié et moulu pour système NESPRESS…  │
│ [{'lang': main, 't…  │ [{'lang': main, 'text': 10 capsules de café torréfié et moulu pour système NESPRESSO.}, {'lang': fr, 'text': 10 capsules de café torréfié et moulu pour système NESPRESS…  │
│ [{'lang': main, 't…  │ [{'lang': main, 'text': Preparado à Base de Leite em Pó, com Açúcar e Café Solúvel}, {'lang': pt, 'text': Preparado à Base de Leite em Pó, com Açúcar e Café Solúvel}]     │
│ [{'lang': main, 't…  │ [{'lang': main, 'text': 10 capsules de café décaféiné torréfié et moulu pour système Nespresso.}, {'lang': fr, 'text': 10 capsules de café décaféiné torréfié et moulu p…  │
│ [{'lang': th, 'tex…  │ [{'lang': th, 'text': INSTANT COFFEE MIXED POWDER}]                                                                                                                        │
│ [{'lang': main, 't…  │ [{'lang': main, 'text': 20 capsules de café torréfié et moulu pour système Nespresso}, {'lang': fr, 'text': 20 capsules de café torréfié et moulu pour système Nespresso}] │
│ [{'lang': main, 't…  │ [{'lang': main, 'text': 20 capsules de café torréfié et moulu pour système Nespresso}, {'lang': fr, 'text': 20 capsules de café torréfié et moulu pour système Nespresso}] │
│ [{'lang': fr, 'tex…  │ [{'lang': fr, 'text': Préparation instantanée pour boisson au café}]                                                                                                       │
│ [{'lang': main, 't…  │ [{'lang': main, 'text': Capsules de café moulu.}, {'lang': it, 'text': Capsule di caffè macinato.}, {'lang': ro, 'text': Capsule cu cafea măcinată.}, {'lang': fr, 'text…  │
│ [{'lang': main, 't…  │ [{'lang': main, 'text': helado de crema de leche con café.}, {'lang': es, 'text': helado de crema de leche con café.}]                                                     │
├──────────────────────┴────────────────────────────────────────────────────────────────────────────────────────────────────────────────────────────────────────────────────────────────────────────┤
│ 2282 rows (20 shown)                                                                                                                                                                    2 columns │
└───────────────────────────────────────────────────────────────────────────────────────────────────────────────────────────────────────────────────────────────────────────────────────────────────┘
```
…
### Correlation between Nutri-Score and Eco-Score
```sql
-- Correlation between Nutri-Score and Eco-Score
SELECT 
    nutriscore_grade,
    ecoscore_grade,
    COUNT(*) AS count
FROM products
WHERE nutriscore_grade IS NOT NULL 
AND ecoscore_grade IS NOT NULL
GROUP BY nutriscore_grade, ecoscore_grade
ORDER BY nutriscore_grade, ecoscore_grade;
```
```text
┌──────────────────┬────────────────┬─────────┐
│ nutriscore_grade │ ecoscore_grade │  count  │
│     varchar      │    varchar     │  int64  │
├──────────────────┼────────────────┼─────────┤
│ a                │ a              │   16965 │
│ a                │ a-plus         │    9206 │
│ a                │ b              │   15060 │
│ a                │ c              │    6653 │
│ a                │ d              │    8405 │
│ a                │ e              │   12564 │
│ a                │ f              │    3809 │
│ a                │ not-applicable │    6340 │
│ a                │ unknown        │   61929 │
│ b                │ a              │   11220 │
│ ·                │ ·              │     ·   │
│ ·                │ ·              │     ·   │
│ ·                │ ·              │     ·   │
│ not-applicable   │ unknown        │   19991 │
│ unknown          │ a              │   22448 │
│ unknown          │ a-plus         │    9712 │
│ unknown          │ b              │   32950 │
│ unknown          │ c              │   19157 │
│ unknown          │ d              │   23063 │
│ unknown          │ e              │   20748 │
│ unknown          │ f              │   13974 │
│ unknown          │ not-applicable │    7886 │
│ unknown          │ unknown        │ 1797394 │
├──────────────────┴────────────────┴─────────┤
│ 63 rows (20 shown)                3 columns │
└─────────────────────────────────────────────┘
```
…
│ 3021762516063 │ abbreviated_product_name_fr │ 2025-01-21 22:57:46-05   │
│ 3021762516063 │ product_name_fr             │ 2025-01-21 22:57:46-05   │
│ 3021762516063 │ categories                  │ 2025-01-21 22:57:46-05   │
│ 3021762516063 │ generic_name_fr             │ 2025-01-21 22:57:46-05   │
├───────────────┴─────────────────────────────┴──────────────────────────┤
│ 10 rows                                                      3 columns │
└────────────────────────────────────────────────────────────────────────┘
``````sql
        SELECT brands 
FROM products 
WHERE brands 
LIKE '%organic%';
```
```text
┌──────────────────────────────────────────────────────────────┐
│                            brands                            │
│                           varchar                            │
├──────────────────────────────────────────────────────────────┤
│ usda organic Butternut Mountain Farm,Butternut Mountain Farm │
│ simple truch organic,Simple Truth Organic                    │
│ Simple truth organic,Kroger                                  │
│ Sainsbury's SO organic,sainsbury's                           │
│ Goorganic                                                    │
│ Gao thang organic                                            │
│ stonyfield organic, Stonyfield                               │
│ Stonyfield,Stonyfield organic                                │
│ organics, O Organics                                         │
│ sainsbury's SO organic,Sainsbury's                           │
│      ·                                                       │
│      ·                                                       │
│      ·                                                       │
│ HEB organics                                                 │
│ Nur Nur Natur,Completeorganics                               │
│ Nur Nur Natur, Completeorganics                              │
│ Simple truth organic                                         │
│ COLES organic                                                │
│ organic tattva                                               │
│ Full Circle organic                                          │
│ Wegman organic                                               │
│ Chef Hal’s organic                                           │
│ Fiveamorganic                                                │
├──────────────────────────────────────────────────────────────┤
│                     863 rows (20 shown)                      │
└──────────────────────────────────────────────────────────────┘
```
