…
### Average Nutri-Score by brand with more than 100 products
```sql
-- Average Nutri-Score by brand with more than 100 products
SELECT 
    unnest AS brand,
    avg(nutriscore_score) AS avg_score,
    count(*) AS products
FROM products,
     unnest(brands_tags) AS unnest
GROUP BY brand
HAVING count(*) > 100
ORDER BY avg_score;
```
```text
┌────────────────────────────┬─────────────────────┬──────────┐
│           brand            │      avg_score      │ products │
│          varchar           │       double        │  int64   │
├────────────────────────────┼─────────────────────┼──────────┤
│ muller-s-muhle             │  -8.248175182481752 │      179 │
│ alliance-bio               │              -7.425 │      116 │
│ sabarot                    │ -6.6369426751592355 │      288 │
│ vivien-paille              │  -6.504424778761062 │      163 │
│ driscoll-s                 │  -5.516129032258065 │      147 │
│ terra-e-sole               │                -5.5 │      117 │
│ grain-de-frais             │ -4.9186046511627906 │      119 │
│ les-fermiers-de-loue       │  -4.793103448275862 │      115 │
│ once-again                 │  -4.041666666666667 │      172 │
│ edora                      │                -4.0 │      105 │
│   ·                        │                  ·  │       ·  │
│   ·                        │                  ·  │       ·  │
│   ·                        │                  ·  │       ·  │
│ tiesta-tea                 │                NULL │      125 │
│ rsw-home                   │                NULL │      154 │
│ セブンイレブン             │                NULL │      115 │
│ botanical-interests        │                NULL │      693 │
│ now-essential-oils         │                NULL │      172 │
│ convar-feldkuche           │                NULL │      102 │
│ la-cave-d-augustin-florent │                NULL │      101 │
│ apta                       │                NULL │      155 │
│ franklin-baker             │                NULL │      493 │
│ messegue                   │                NULL │      119 │
├────────────────────────────┴─────────────────────┴──────────┤
│ 3120 rows (20 shown)                              3 columns │
└─────────────────────────────────────────────────────────────┘
```
…
└─────────────────────────────────────────────────────────────────────────┘
```
### Most common vitamins
```sql
-- Most common vitamins
SELECT 
    unnest AS vitamin,
    count(*) AS count
FROM products,
    unnest(vitamins_tags) AS unnest
GROUP BY vitamin
ORDER BY count DESC;
```
```text
┌──────────────────────────────────────┬───────┐
│               vitamin                │ count │
│               varchar                │ int64 │
├──────────────────────────────────────┼───────┤
│ en:niacin                            │ 69821 │
│ en:folic-acid                        │ 64349 │
│ en:riboflavin                        │ 63139 │
│ en:thiamin-mononitrate               │ 52584 │
│ en:thiamin                           │ 32385 │
│ en:l-ascorbic-acid                   │ 28630 │
│ en:vitamin-c                         │ 21479 │
│ en:retinyl-palmitate                 │ 16669 │
│ en:vitamin-b6                        │ 16387 │
│ en:vitamin-b12                       │ 16227 │
│       ·                              │     · │
│       ·                              │     · │
│       ·                              │     · │
│ en:beta-carotene-dye                 │    29 │
│ en:d-alpha-tocopheryl-acid-succinate │    12 │
│ en:dexpanthenol                      │    11 │
│ en:potassium-l-ascorbate             │     8 │
│ en:hydroxocobalamin                  │     6 │
│ en:l-ascorbyl-6-palmitate            │     5 │
│ en:pyridoxine-5-phosphate            │     3 │
│ en:vitamin-k3                        │     2 │
│ da:vitamin-a-og-d                    │     2 │
│ en:pyridoxine-dipalmitate            │     1 │
├──────────────────────────────────────┴───────┤
│ 50 rows (20 shown)                 2 columns │
└──────────────────────────────────────────────┘
```
…
└──────────┴─────────┴─────────────────────┘
```
### Products by food group
```sql
-- Products by food group
SELECT 
    unnest AS food_group,
    count(*) AS count
FROM products,
    unnest(food_groups_tags) AS unnest
GROUP BY food_group
ORDER BY count DESC;
```
```text
┌─────────────────────────────────────┬────────┐
│             food_group              │ count  │
│               varchar               │ int64  │
├─────────────────────────────────────┼────────┤
│ en:sugary-snacks                    │ 257611 │
│ en:fish-meat-eggs                   │ 165182 │
│ en:cereals-and-potatoes             │ 160465 │
│ en:milk-and-dairy-products          │ 153141 │
│ en:sweets                           │ 117731 │
│ en:fats-and-sauces                  │ 114765 │
│ en:beverages                        │ 113193 │
│ en:biscuits-and-cakes               │ 100602 │
│ en:fruits-and-vegetables            │  93543 │
│ en:composite-foods                  │  85396 │
│       ·                             │     ·  │
│       ·                             │     ·  │
│       ·                             │     ·  │
│ en:sandwiches                       │   7627 │
│ en:fruit-juices                     │   6980 │
│ en:eggs                             │   6321 │
│ en:waters-and-flavored-waters       │   5597 │
│ en:potatoes                         │   5533 │
│ en:soups                            │   4687 │
│ en:teas-and-herbal-teas-and-coffees │   3571 │
│ en:lean-fish                        │   1819 │
│ en:offals                           │   1759 │
│ en:fruit-nectars                    │   1675 │
├─────────────────────────────────────┴────────┤
│ 52 rows (20 shown)                 2 columns │
└──────────────────────────────────────────────┘
```
…
├─────────┴────────┤
│     16 rows      │
└──────────────────┘
```
### Products containing 'café', 'cafe', or 'coffee' in their generic name
```sql
-- Products containing 'café', 'cafe', or 'coffee' in their generic name
SELECT product_name, generic_name
FROM products
WHERE lower(generic_name::VARCHAR) LIKE '%café%'
   OR lower(generic_name::VARCHAR) LIKE '%cafe%'
   OR lower(generic_name::VARCHAR) LIKE '%coffee%';
```
```text
┌──────────────────────┬────────────────────────────────────────────────────────────────────────────────────────────────────────────────────────────────────────────────────────────────────────────┐
│     product_name     │                                                                                generic_name                                                                                │
│ struct(lang varcha…  │                                                                   struct(lang varchar, "text" varchar)[]                                                                   │
├──────────────────────┼────────────────────────────────────────────────────────────────────────────────────────────────────────────────────────────────────────────────────────────────────────────┤
│ [{'lang': main, 't…  │ [{'lang': main, 'text': chilled coffee drink caramel flavored.}, {'lang': en, 'text': chilled coffee drink caramel flavored.}]                                             │
│ [{'lang': main, 't…  │ [{'lang': main, 'text': energy coffee beverage}, {'lang': en, 'text': energy coffee beverage}]                                                                             │
│ [{'lang': main, 't…  │ [{'lang': main, 'text': Premium Coffee Beverage}, {'lang': en, 'text': Premium Coffee Beverage}]                                                                           │
│ [{'lang': main, 't…  │ [{'lang': main, 'text': Sparkling green coffee energy beverage}, {'lang': en, 'text': Sparkling green coffee energy beverage}]                                             │
│ [{'lang': main, 't…  │ [{'lang': main, 'text': chilled coffee drink.}, {'lang': en, 'text': chilled coffee drink.}]                                                                               │
│ [{'lang': main, 't…  │ [{'lang': main, 'text': Bière britannique au café - Flat White Porter}, {'lang': fr, 'text': Bière britannique au café - Flat White Porter}]                               │
│ [{'lang': main, 't…  │ [{'lang': main, 'text': Ground coffee}, {'lang': en, 'text': Ground coffee}]                                                                                               │
│ [{'lang': main, 't…  │ [{'lang': main, 'text': ground coffee}, {'lang': en, 'text': ground coffee}]                                                                                               │
│ [{'lang': main, 't…  │ [{'lang': main, 'text': Instant Coffee}, {'lang': fr, 'text': Instant Coffee}]                                                                                             │
│ [{'lang': main, 't…  │ [{'lang': main, 'text': Coffee cookie crumble ice cream}, {'lang': en, 'text': Coffee cookie crumble ice cream}]                                                           │
│          ·           │                                                        ·                                                                                                                   │
│          ·           │                                                        ·                                                                                                                   │
│          ·           │                                                        ·                                                                                                                   │
│ [{'lang': main, 't…  │ [{'lang': main, 'text': 18 capsules de café torréfié et moulu pour système NESPRESSO.}, {'lang': fr, 'text': 18 capsules de café torréfié et moulu pour système NESPRESS…  │
│ [{'lang': main, 't…  │ [{'lang': main, 'text': 10 capsules de café torréfié et moulu pour système NESPRESSO.}, {'lang': fr, 'text': 10 capsules de café torréfié et moulu pour système NESPRESS…  │
│ [{'lang': main, 't…  │ [{'lang': main, 'text': Preparado à Base de Leite em Pó, com Açúcar e Café Solúvel}, {'lang': pt, 'text': Preparado à Base de Leite em Pó, com Açúcar e Café Solúvel}]     │
│ [{'lang': main, 't…  │ [{'lang': main, 'text': 10 capsules de café décaféiné torréfié et moulu pour système Nespresso.}, {'lang': fr, 'text': 10 capsules de café décaféiné torréfié et moulu p…  │
│ [{'lang': th, 'tex…  │ [{'lang': th, 'text': INSTANT COFFEE MIXED POWDER}]                                                                                                                        │
│ [{'lang': main, 't…  │ [{'lang': main, 'text': 20 capsules de café torréfié et moulu pour système Nespresso}, {'lang': fr, 'text': 20 capsules de café torréfié et moulu pour système Nespresso}] │
│ [{'lang': main, 't…  │ [{'lang': main, 'text': 20 capsules de café torréfié et moulu pour système Nespresso}, {'lang': fr, 'text': 20 capsules de café torréfié et moulu pour système Nespresso}] │
│ [{'lang': fr, 'tex…  │ [{'lang': fr, 'text': Préparation instantanée pour boisson au café}]                                                                                                       │
│ [{'lang': main, 't…  │ [{'lang': main, 'text': Capsules de café moulu.}, {'lang': it, 'text': Capsule di caffè macinato.}, {'lang': ro, 'text': Capsule cu cafea măcinată.}, {'lang': fr, 'text…  │
│ [{'lang': main, 't…  │ [{'lang': main, 'text': helado de crema de leche con café.}, {'lang': es, 'text': helado de crema de leche con café.}]                                                     │
├──────────────────────┴────────────────────────────────────────────────────────────────────────────────────────────────────────────────────────────────────────────────────────────────────────────┤
│ 2282 rows (20 shown)                                                                                                                                                                    2 columns │
└───────────────────────────────────────────────────────────────────────────────────────────────────────────────────────────────────────────────────────────────────────────────────────────────────┘
```
…
### Correlation between Nutri-Score and Eco-Score
```sql
-- Correlation between Nutri-Score and Eco-Score
SELECT 
    nutriscore_grade,
    ecoscore_grade,
    COUNT(*) as count
FROM products
WHERE nutriscore_grade IS NOT NULL 
AND ecoscore_grade IS NOT NULL
GROUP BY nutriscore_grade, ecoscore_grade
ORDER BY nutriscore_grade, ecoscore_grade;
```
```text
┌──────────────────┬────────────────┬─────────┐
│ nutriscore_grade │ ecoscore_grade │  count  │
│     varchar      │    varchar     │  int64  │
├──────────────────┼────────────────┼─────────┤
│ a                │ a              │   16965 │
│ a                │ a-plus         │    9206 │
│ a                │ b              │   15060 │
│ a                │ c              │    6653 │
│ a                │ d              │    8405 │
│ a                │ e              │   12564 │
│ a                │ f              │    3809 │
│ a                │ not-applicable │    6340 │
│ a                │ unknown        │   61929 │
│ b                │ a              │   11220 │
│ ·                │ ·              │     ·   │
│ ·                │ ·              │     ·   │
│ ·                │ ·              │     ·   │
│ not-applicable   │ unknown        │   19991 │
│ unknown          │ a              │   22448 │
│ unknown          │ a-plus         │    9712 │
│ unknown          │ b              │   32950 │
│ unknown          │ c              │   19157 │
│ unknown          │ d              │   23063 │
│ unknown          │ e              │   20748 │
│ unknown          │ f              │   13974 │
│ unknown          │ not-applicable │    7886 │
│ unknown          │ unknown        │ 1797394 │
├──────────────────┴────────────────┴─────────┤
│ 63 rows (20 shown)                3 columns │
└─────────────────────────────────────────────┘
```
…
-- Search in array (using array_to_string)
SELECT count(code) as nb, allergens_tags
FROM products
WHERE regexp_matches(array_to_string(allergens_tags, ','), 'fr:')
GROUP BY allergens_tags
ORDER BY nb DESC;
```
```text
┌───────┬─────────────────────────────────────────────────────────────────────────────────────────────────────────────────────────────────────────────────┐
│  nb   │                                                                 allergens_tags                                                                  │
│ int64 │                                                                    varchar[]                                                                    │
├───────┼─────────────────────────────────────────────────────────────────────────────────────────────────────────────────────────────────────────────────┤
│   343 │ [en:gluten, fr:avoine]                                                                                                                          │
│   131 │ [fr:non]                                                                                                                                        │
│   116 │ [en:gluten, en:milk, en:soybeans, fr:avoine]                                                                                                    │
│   104 │ [en:gluten, en:nuts, fr:avoine]                                                                                                                 │
│   104 │ [en:gluten, en:milk, fr:avoine]                                                                                                                 │
│    55 │ [fr:non-renseigne]                                                                                                                              │
│    55 │ [en:gluten, en:soybeans, fr:avoine]                                                                                                             │
│    50 │ [en:gluten, en:sesame-seeds, fr:avoine]                                                                                                         │
│    49 │ [en:gluten, fr:avoine, fr:avoine]                                                                                                               │
│    40 │ [en:milk, fr:ferments]                                                                                                                          │
│     · │           ·                                                                                                                                     │
│     · │           ·                                                                                                                                     │
│     · │           ·                                                                                                                                     │
│     1 │ [en:milk, fr:lactoserique]                                                                                                                      │
│     1 │ [en:eggs, en:gluten, en:milk, en:nuts, en:soybeans, fr:cajou, fr:fruits-a-coques-moulus, en:milk, fr:cajou, fr:fruits-a-coques-moulus, en:milk] │
│     1 │ [en:eggs, en:gluten, en:milk, en:nuts, en:soybeans, fr:cajou, fr:fruit-a-coque-moulus, en:milk]                                                 │
│     1 │ [en:milk, fr:laitlait-et-produit-a-base-de-lait-y-compris-le-lactose]                                                                           │
│     1 │ [en:eggs, en:gluten, en:milk, en:sesame-seeds, en:soybeans, en:sulphur-dioxide-and-sulphites, fr:avoine]                                        │
│     1 │ [en:gluten, en:milk, en:soybeans, fr:citron]                                                                                                    │
│     1 │ [en:milk, fr:noisettes-20]                                                                                                                      │
│     1 │ [en:gluten, en:milk, fr:specialite-fromagere]                                                                                                   │
│     1 │ [en:eggs, en:gluten, en:milk, en:nuts, fr:proteine-de-lait-de-vache]                                                                            │
│     1 │ [en:gluten, en:milk, en:soybeans, fr:一部に-乳成分, fr:大豆を含む, fr:小麦]                                                                     │
├───────┴─────────────────────────────────────────────────────────────────────────────────────────────────────────────────────────────────────────────────┤
│ 2294 rows (20 shown)                                                                                                                          2 columns │
└─────────────────────────────────────────────────────────────────────────────────────────────────────────────────────────────────────────────────────────┘
```
…
